SDController.vcd
$date
	Thu Apr 06 12:44:18 2023
$end
$version
	Icarus Verilog
$end
$timescale
	100ps
$end
$scope module SDController_tb $end
$var wire 1 ! responseByte $end
$var wire 8 " response [7:0] $end
$var wire 8 # SD [7:0] $end
$var reg 1 $ clk $end
$var reg 48 % cmd [47:0] $end
$var reg 13 & responseBuffer [12:0] $end
$var reg 1 ' start $end
$var integer 32 ( responseIdx [31:0] $end
$var integer 32 ) started [31:0] $end
$scope module SD_test $end
$var wire 1 * byteCntReset $end
$var wire 1 + byteDone $end
$var wire 1 $ clk $end
$var wire 48 , cmd [47:0] $end
$var wire 1 ' start $end
$var wire 4 - byteCnt [3:0] $end
$var wire 8 . SD [7:0] $end
$var reg 48 / cmdBuffer [47:0] $end
$var reg 8 0 response [7:0] $end
$var reg 8 1 responseBuffer [7:0] $end
$var reg 1 ! responseByte $end
$var reg 1 2 startPulse $end
$var reg 1 3 started $end
$scope module ByteCounter $end
$var wire 1 $ clk $end
$var wire 1 * clr $end
$var wire 1 3 en $end
$var wire 1 4 toggle2 $end
$var wire 1 5 toggle3 $end
$var wire 4 6 out [3:0] $end
$scope module Bit1 $end
$var wire 1 $ clk $end
$var wire 1 * clr $end
$var wire 1 7 d $end
$var wire 1 3 en $end
$var wire 1 8 notOut $end
$var wire 1 9 notToggle $end
$var wire 1 : stayOn $end
$var wire 1 ; t $end
$var wire 1 < toggleOn $end
$var wire 1 = q $end
$scope module DFF $end
$var wire 1 $ clk $end
$var wire 1 * clr $end
$var wire 1 7 d $end
$var wire 1 3 en $end
$var reg 1 = q $end
$upscope $end
$upscope $end
$scope module Bit2 $end
$var wire 1 $ clk $end
$var wire 1 * clr $end
$var wire 1 > d $end
$var wire 1 3 en $end
$var wire 1 ? notOut $end
$var wire 1 @ notToggle $end
$var wire 1 A stayOn $end
$var wire 1 B t $end
$var wire 1 C toggleOn $end
$var wire 1 D q $end
$scope module DFF $end
$var wire 1 $ clk $end
$var wire 1 * clr $end
$var wire 1 > d $end
$var wire 1 3 en $end
$var reg 1 D q $end
$upscope $end
$upscope $end
$scope module Bit3 $end
$var wire 1 $ clk $end
$var wire 1 * clr $end
$var wire 1 E d $end
$var wire 1 3 en $end
$var wire 1 F notOut $end
$var wire 1 G notToggle $end
$var wire 1 H stayOn $end
$var wire 1 4 t $end
$var wire 1 I toggleOn $end
$var wire 1 J q $end
$scope module DFF $end
$var wire 1 $ clk $end
$var wire 1 * clr $end
$var wire 1 E d $end
$var wire 1 3 en $end
$var reg 1 J q $end
$upscope $end
$upscope $end
$scope module Bit4 $end
$var wire 1 $ clk $end
$var wire 1 * clr $end
$var wire 1 K d $end
$var wire 1 3 en $end
$var wire 1 L notOut $end
$var wire 1 M notToggle $end
$var wire 1 N stayOn $end
$var wire 1 5 t $end
$var wire 1 O toggleOn $end
$var wire 1 P q $end
$scope module DFF $end
$var wire 1 $ clk $end
$var wire 1 * clr $end
$var wire 1 K d $end
$var wire 1 3 en $end
$var reg 1 P q $end
$upscope $end
$upscope $end
$upscope $end
$upscope $end
$scope begin $ivl_for_loop0 $end
$var integer 32 Q i [31:0] $end
$upscope $end
$upscope $end
$enddefinitions $end
$comment Show the parameter values. $end
$dumpall
$end
#0
$dumpvars
b0 Q
0P
0O
0N
1M
1L
0K
0J
0I
0H
1G
1F
0E
0D
0C
0B
0A
1@
1?
0>
0=
1<
1;
0:
09
18
17
b0 6
05
04
03
02
b11111111 1
bx 0
b0 /
b1zz110z0 .
b0 -
b101010101010101010101010101010101010101010101010 ,
0+
0*
b0 )
b0 (
0'
b101100011101 &
b101010101010101010101010101010101010101010101010 %
0$
b1zz110z0 #
bx "
0!
$end
#20
b1zz111z0 #
b1zz111z0 .
1$
b1 Q
#40
b1zz110z0 #
b1zz110z0 .
0$
b10 Q
#60
b1zz111z0 #
b1zz111z0 .
1$
b11 Q
#80
b1zz110z0 #
b1zz110z0 .
0$
b100 Q
#100
b1zz111z0 #
b1zz111z0 .
1$
b101 Q
#120
b1zz110z0 #
b1zz110z0 .
0$
b110 Q
#140
b1zz111z0 #
b1zz111z0 .
1$
b111 Q
#160
b1zz110z0 #
b1zz110z0 .
0$
b1000 Q
#180
b1zz111z0 #
b1zz111z0 .
1$
b1001 Q
#200
1*
12
13
b101010101010101010101010101010101010101010101010 /
b0zz110z0 #
b0zz110z0 .
0$
1'
b1010 Q
#220
0*
b10101010101010101010101010101010101010101010101 /
02
b0zz101z0 #
b0zz101z0 .
1$
b1011 Q
#240
b0zz100z0 #
b0zz100z0 .
0$
b1100 Q
b1 )
#260
07
1>
0<
0@
1C
08
1B
b1 -
b1 6
1=
b11111110 1
b101010101010101010101010101010101010101010101011 /
1$
b1101 Q
b0zz011z0 #
b0zz011z0 .
b1 (
#280
b0zz010z0 #
b0zz010z0 .
0$
b1110 Q
#300
17
1A
1>
1<
1@
0C
18
0B
0?
0=
b10 -
b10 6
1D
b11111101 1
b10101010101010101010101010101010101010101010111 /
1$
b1111 Q
b0zz101z0 #
b0zz101z0 .
b10 (
#320
b0zz100z0 #
b0zz100z0 .
0$
b10000 Q
#340
1E
0>
07
0G
1I
0A
0<
14
0@
08
1B
b11 -
b11 6
1=
b11111011 1
b101010101010101010101010101010101010101010101111 /
b0zz111z0 #
b0zz111z0 .
1$
b10001 Q
b11 (
#360
b0zz110z0 #
b0zz110z0 .
0$
b10010 Q
#380
1H
17
1G
1E
1<
1@
04
0I
0+
18
0B
1?
0F
0=
0D
b100 -
b100 6
1J
b11110111 1
b10101010101010101010101010101010101010101011111 /
b0zz101z0 #
b0zz101z0 .
1$
b10011 Q
b100 (
#400
b0zz100z0 #
b0zz100z0 .
0$
b10100 Q
#420
07
1>
0<
0@
1C
08
1B
b101 -
b101 6
1=
b11101110 1
b101010101010101010101010101010101010101010111111 /
1$
b10101 Q
b0zz011z0 #
b0zz011z0 .
b101 (
#440
b0zz010z0 #
b0zz010z0 .
0$
b10110 Q
#460
17
1A
1>
1<
1@
0C
18
0B
0?
0=
b110 -
b110 6
1D
b11011100 1
b10101010101010101010101010101010101010101111111 /
b0zz001z0 #
b0zz001z0 .
1$
b10111 Q
b110 (
#480
b0zz000z0 #
b0zz000z0 .
0$
b11000 Q
#500
0E
1K
0H
0>
07
0M
1O
0G
0A
1+
0<
15
14
0@
08
1B
b111 -
b111 6
1=
b10111000 1
b101010101010101010101010101010101010101011111111 /
b0zz011z0 #
b0zz011z0 .
1$
b11001 Q
b111 (
#520
b0zz010z0 #
b0zz010z0 .
0$
b11010 Q
#540
0N
17
1G
0E
1M
0K
1<
1@
04
0I
05
0+
0O
0*
18
0B
1?
1F
1L
0=
0D
0J
b0 -
b0 6
0P
b10111000 "
b10111000 0
1!
b1110001 1
b10101010101010101010101010101010101010111111111 /
1$
b11011 Q
b0zz101z0 #
b0zz101z0 .
b1000 (
#560
b0zz100z0 #
b0zz100z0 .
0$
b11100 Q
#580
07
1>
0<
0@
1C
08
1B
b1 -
b1 6
1=
b11100011 1
b101010101010101010101010101010101010101111111111 /
b0zz111z0 #
b0zz111z0 .
1$
b11101 Q
b1001 (
#600
b0zz110z0 #
b0zz110z0 .
0$
b11110 Q
#620
17
1A
1>
1<
1@
0C
0?
18
0B
1D
b10 -
b10 6
0=
b11000110 1
b10101010101010101010101010101010101011111111111 /
1$
b11111 Q
b0zz001z0 #
b0zz001z0 .
b1010 (
#640
b0zz000z0 #
b0zz000z0 .
0$
0'
b100000 Q
#660
1E
0>
07
0G
1I
0A
0<
14
0@
08
1B
b11 -
b11 6
1=
b10001101 1
b101010101010101010101010101010101010111111111111 /
1$
b100001 Q
b0zz111z0 #
b0zz111z0 .
b1011 (
#680
b0zz110z0 #
b0zz110z0 .
0$
b100010 Q
#700
1H
1E
17
1G
0I
1<
04
1@
0F
1?
18
0B
1J
0D
b100 -
b100 6
0=
b11011 1
b10101010101010101010101010101010101111111111111 /
b0zz101z0 #
b0zz101z0 .
1$
b100011 Q
b0 (
#720
b0zz100z0 #
b0zz100z0 .
0$
b100100 Q
#740
07
1>
0<
0@
1C
08
1B
b101 -
b101 6
1=
b110110 1
b101010101010101010101010101010101011111111111111 /
1$
b100101 Q
b0zz011z0 #
b0zz011z0 .
b1 (
#760
b0zz010z0 #
b0zz010z0 .
0$
b100110 Q
#780
17
1A
1>
1<
1@
0C
0?
18
0B
1D
b110 -
b110 6
0=
b1101101 1
b10101010101010101010101010101010111111111111111 /
1$
b100111 Q
b0zz101z0 #
b0zz101z0 .
b10 (
#800
b0zz100z0 #
b0zz100z0 .
0$
b101000 Q
#820
0E
1K
0H
0>
07
0M
1O
0G
0A
1+
0<
15
14
0@
08
1B
b111 -
b111 6
1=
b11011011 1
b101010101010101010101010101010101111111111111111 /
b0zz111z0 #
b0zz111z0 .
1$
b101001 Q
b11 (
#840
b0zz110z0 #
b0zz110z0 .
0$
b101010 Q
#860
0N
0K
17
1M
1G
0O
0*
0+
1<
05
04
1@
1L
1F
1?
18
0B
0P
0J
0D
b0 -
b0 6
0=
b11011011 "
b11011011 0
0!
b10110111 1
b10101010101010101010101010101011111111111111111 /
b0zz101z0 #
b0zz101z0 .
1$
b101011 Q
b100 (
#880
b0zz100z0 #
b0zz100z0 .
0$
b101100 Q
#900
07
1>
0<
0@
1C
08
1B
b1 -
b1 6
1=
b1101110 1
b101010101010101010101010101010111111111111111111 /
1$
b101101 Q
b0zz011z0 #
b0zz011z0 .
b101 (
#920
b0zz010z0 #
b0zz010z0 .
0$
b101110 Q
#940
17
1A
1>
1<
1@
0C
18
0B
0?
0=
b10 -
b10 6
1D
b11011100 1
b10101010101010101010101010101111111111111111111 /
b0zz001z0 #
b0zz001z0 .
1$
b101111 Q
b110 (
#960
b0zz000z0 #
b0zz000z0 .
0$
b110000 Q
#980
1E
0>
07
0G
1I
0A
0<
14
0@
08
1B
b11 -
b11 6
1=
b10111000 1
b101010101010101010101010101011111111111111111111 /
b0zz011z0 #
b0zz011z0 .
1$
b110001 Q
b111 (
#1000
b0zz010z0 #
b0zz010z0 .
0$
b110010 Q
#1020
1H
17
1G
1E
1<
1@
04
0I
0+
18
0B
1?
0F
0=
0D
b100 -
b100 6
1J
b1110001 1
b10101010101010101010101010111111111111111111111 /
1$
b110011 Q
b0zz101z0 #
b0zz101z0 .
b1000 (
#1040
b0zz100z0 #
b0zz100z0 .
0$
b110100 Q
#1060
07
1>
0<
0@
1C
08
1B
b101 -
b101 6
1=
b11100011 1
b101010101010101010101010101111111111111111111111 /
b0zz111z0 #
b0zz111z0 .
1$
b110101 Q
b1001 (
#1080
b0zz110z0 #
b0zz110z0 .
0$
b110110 Q
#1100
17
1A
1>
1<
1@
0C
18
0B
0?
0=
b110 -
b110 6
1D
b11000110 1
b10101010101010101010101011111111111111111111111 /
1$
b110111 Q
b0zz001z0 #
b0zz001z0 .
b1010 (
#1120
b0zz000z0 #
b0zz000z0 .
0$
b111000 Q
#1140
0E
1K
0H
0>
07
0M
1O
0G
0A
1+
0<
15
14
0@
08
1B
b111 -
b111 6
1=
b10001101 1
b101010101010101010101010111111111111111111111111 /
1$
b111001 Q
b0zz111z0 #
b0zz111z0 .
b1011 (
#1160
b0zz110z0 #
b0zz110z0 .
0$
b111010 Q
#1180
0N
17
1G
0E
1M
0K
1<
1@
04
0I
05
0+
0O
0*
18
0B
1?
1F
1L
0=
0D
0J
b0 -
b0 6
0P
b10001101 "
b10001101 0
1!
b11011 1
b10101010101010101010101111111111111111111111111 /
b0zz101z0 #
b0zz101z0 .
1$
b111011 Q
b0 (
#1200
b0zz100z0 #
b0zz100z0 .
0$
b111100 Q
#1220
07
1>
0<
0@
1C
08
1B
b1 -
b1 6
1=
b110110 1
b101010101010101010101011111111111111111111111111 /
1$
b111101 Q
b0zz011z0 #
b0zz011z0 .
b1 (
#1240
b0zz010z0 #
b0zz010z0 .
0$
b111110 Q
#1260
17
1A
1>
1<
1@
0C
0?
18
0B
1D
b10 -
b10 6
0=
b1101101 1
b10101010101010101010111111111111111111111111111 /
1$
b111111 Q
b0zz101z0 #
b0zz101z0 .
b10 (
#1280
b0zz100z0 #
b0zz100z0 .
0$
b1000000 Q
#1300
1E
0>
07
0G
1I
0A
0<
14
0@
08
1B
b11 -
b11 6
1=
b11011011 1
b101010101010101010101111111111111111111111111111 /
b0zz111z0 #
b0zz111z0 .
1$
b1000001 Q
b11 (
#1320
b0zz110z0 #
b0zz110z0 .
0$
b1000010 Q
#1340
1H
1E
17
1G
0I
1<
04
1@
0F
1?
18
0B
1J
0D
b100 -
b100 6
0=
b10110111 1
b10101010101010101011111111111111111111111111111 /
b0zz101z0 #
b0zz101z0 .
1$
b1000011 Q
b100 (
#1360
b0zz100z0 #
b0zz100z0 .
0$
b1000100 Q
#1380
07
1>
0<
0@
1C
08
1B
b101 -
b101 6
1=
b1101110 1
b101010101010101010111111111111111111111111111111 /
1$
b1000101 Q
b0zz011z0 #
b0zz011z0 .
b101 (
#1400
b0zz010z0 #
b0zz010z0 .
0$
b1000110 Q
#1420
17
1A
1>
1<
1@
0C
0?
18
0B
1D
b110 -
b110 6
0=
b11011100 1
b10101010101010101111111111111111111111111111111 /
b0zz001z0 #
b0zz001z0 .
1$
b1000111 Q
b110 (
#1440
b0zz000z0 #
b0zz000z0 .
0$
b1001000 Q
#1460
0E
1K
0H
0>
07
0M
1O
0G
0A
1+
0<
15
14
0@
08
1B
b111 -
b111 6
1=
b10111000 1
b101010101010101011111111111111111111111111111111 /
b0zz011z0 #
b0zz011z0 .
1$
b1001001 Q
b111 (
#1480
b0zz010z0 #
b0zz010z0 .
0$
b1001010 Q
#1500
0N
0K
17
1M
1G
0O
0*
0+
1<
05
04
1@
1L
1F
1?
18
0B
0P
0J
0D
b0 -
b0 6
0=
b10111000 "
b10111000 0
0!
b1110001 1
b10101010101010111111111111111111111111111111111 /
1$
b1001011 Q
b0zz101z0 #
b0zz101z0 .
b1000 (
#1520
b0zz100z0 #
b0zz100z0 .
0$
b1001100 Q
#1540
07
1>
0<
0@
1C
08
1B
b1 -
b1 6
1=
b11100011 1
b101010101010101111111111111111111111111111111111 /
b0zz111z0 #
b0zz111z0 .
1$
b1001101 Q
b1001 (
#1560
b0zz110z0 #
b0zz110z0 .
0$
b1001110 Q
#1580
17
1A
1>
1<
1@
0C
18
0B
0?
0=
b10 -
b10 6
1D
b11000110 1
b10101010101011111111111111111111111111111111111 /
1$
b1001111 Q
b0zz001z0 #
b0zz001z0 .
b1010 (
#1600
b0zz000z0 #
b0zz000z0 .
0$
b1010000 Q
#1620
1E
0>
07
0G
1I
0A
0<
14
0@
08
1B
b11 -
b11 6
1=
b10001101 1
b101010101010111111111111111111111111111111111111 /
1$
b1010001 Q
b0zz111z0 #
b0zz111z0 .
b1011 (
#1640
b0zz110z0 #
b0zz110z0 .
0$
b1010010 Q
#1660
1H
17
1G
1E
1<
1@
04
0I
0+
18
0B
1?
0F
0=
0D
b100 -
b100 6
1J
b11011 1
b10101010101111111111111111111111111111111111111 /
b0zz101z0 #
b0zz101z0 .
1$
b1010011 Q
b0 (
#1680
b0zz100z0 #
b0zz100z0 .
0$
b1010100 Q
#1700
07
1>
0<
0@
1C
08
1B
b101 -
b101 6
1=
b110110 1
b101010101011111111111111111111111111111111111111 /
1$
b1010101 Q
b0zz011z0 #
b0zz011z0 .
b1 (
#1720
b0zz010z0 #
b0zz010z0 .
0$
b1010110 Q
#1740
17
1A
1>
1<
1@
0C
18
0B
0?
0=
b110 -
b110 6
1D
b1101101 1
b10101010111111111111111111111111111111111111111 /
1$
b1010111 Q
b0zz101z0 #
b0zz101z0 .
b10 (
#1760
b0zz100z0 #
b0zz100z0 .
0$
b1011000 Q
#1780
0E
1K
0H
0>
07
0M
1O
0G
0A
1+
0<
15
14
0@
08
1B
b111 -
b111 6
1=
b11011011 1
b101010101111111111111111111111111111111111111111 /
b0zz111z0 #
b0zz111z0 .
1$
b1011001 Q
b11 (
#1800
b0zz110z0 #
b0zz110z0 .
0$
b1011010 Q
#1820
0N
17
1G
0E
1M
0K
1<
1@
04
0I
05
0+
0O
0*
18
0B
1?
1F
1L
0=
0D
0J
b0 -
b0 6
0P
b11011011 "
b11011011 0
1!
b10110111 1
b10101011111111111111111111111111111111111111111 /
b0zz101z0 #
b0zz101z0 .
1$
b1011011 Q
b100 (
#1840
b0zz100z0 #
b0zz100z0 .
0$
b1011100 Q
#1860
07
1>
0<
0@
1C
08
1B
b1 -
b1 6
1=
b1101110 1
b101010111111111111111111111111111111111111111111 /
1$
b1011101 Q
b0zz011z0 #
b0zz011z0 .
b101 (
#1880
b0zz010z0 #
b0zz010z0 .
0$
b1011110 Q
#1900
17
1A
1>
1<
1@
0C
0?
18
0B
1D
b10 -
b10 6
0=
b11011100 1
b10101111111111111111111111111111111111111111111 /
b0zz001z0 #
b0zz001z0 .
1$
b1011111 Q
b110 (
#1920
b0zz000z0 #
b0zz000z0 .
0$
b1100000 Q
#1940
1E
0>
07
0G
1I
0A
0<
14
0@
08
1B
b11 -
b11 6
1=
b10111000 1
b101011111111111111111111111111111111111111111111 /
b0zz011z0 #
b0zz011z0 .
1$
b1100001 Q
b111 (
#1960
b0zz010z0 #
b0zz010z0 .
0$
b1100010 Q
#1980
1H
1E
17
1G
0I
1<
04
1@
0F
1?
18
0B
1J
0D
b100 -
b100 6
0=
b1110001 1
b10111111111111111111111111111111111111111111111 /
1$
b1100011 Q
b0zz101z0 #
b0zz101z0 .
b1000 (
#2000
b0zz100z0 #
b0zz100z0 .
0$
b1100100 Q
#2020
07
1>
0<
0@
1C
08
1B
b101 -
b101 6
1=
b11100011 1
b101111111111111111111111111111111111111111111111 /
b0zz111z0 #
b0zz111z0 .
1$
b1100101 Q
b1001 (
#2040
b0zz110z0 #
b0zz110z0 .
0$
b1100110 Q
#2060
17
1A
1>
1<
1@
0C
0?
18
0B
1D
b110 -
b110 6
0=
b11000110 1
b11111111111111111111111111111111111111111111111 /
1$
b1100111 Q
b0zz001z0 #
b0zz001z0 .
b1010 (
#2080
b0zz000z0 #
b0zz000z0 .
0$
b1101000 Q
#2100
0E
1K
0H
0>
07
0M
1O
0G
0A
1+
0<
15
14
0@
08
1B
b111 -
b111 6
1=
b10001101 1
b111111111111111111111111111111111111111111111111 /
1$
b1101001 Q
b0zz111z0 #
b0zz111z0 .
b1011 (
#2120
b0zz110z0 #
b0zz110z0 .
0$
b1101010 Q
#2140
0N
0K
17
1M
1G
0O
0*
0+
1<
05
04
1@
1L
1F
1?
18
0B
0P
0J
0D
b0 -
b0 6
0=
b10001101 "
b10001101 0
0!
b11011 1
b0zz111z0 #
b0zz111z0 .
1$
b1101011 Q
b0 (
#2160
b0zz110z0 #
b0zz110z0 .
0$
b1101100 Q
#2180
07
1>
0<
0@
1C
08
1B
b1 -
b1 6
1=
b110110 1
1$
b1101101 Q
b0zz011z0 #
b0zz011z0 .
b1 (
#2200
b0zz010z0 #
b0zz010z0 .
0$
b1101110 Q
#2220
17
1A
1>
1<
1@
0C
18
0B
0?
0=
b10 -
b10 6
1D
b1101101 1
1$
b1101111 Q
b0zz111z0 #
b0zz111z0 .
b10 (
#2240
b0zz110z0 #
b0zz110z0 .
0$
b1110000 Q
#2260
1E
0>
07
0G
1I
0A
0<
14
0@
08
1B
b11 -
b11 6
1=
b11011011 1
b0zz111z0 #
b0zz111z0 .
1$
b1110001 Q
b11 (
#2280
b0zz110z0 #
b0zz110z0 .
0$
b1110010 Q
#2300
1H
17
1G
1E
1<
1@
04
0I
0+
18
0B
1?
0F
0=
0D
b100 -
b100 6
1J
b10110111 1
b0zz111z0 #
b0zz111z0 .
1$
b1110011 Q
b100 (
#2320
b0zz110z0 #
b0zz110z0 .
0$
b1110100 Q
#2340
07
1>
0<
0@
1C
08
1B
b101 -
b101 6
1=
b1101110 1
1$
b1110101 Q
b0zz011z0 #
b0zz011z0 .
b101 (
#2360
b0zz010z0 #
b0zz010z0 .
0$
b1110110 Q
#2380
17
1A
1>
1<
1@
0C
18
0B
0?
0=
b110 -
b110 6
1D
b11011100 1
b0zz011z0 #
b0zz011z0 .
1$
b1110111 Q
b110 (
#2400
b0zz010z0 #
b0zz010z0 .
0$
b1111000 Q
#2420
0E
1K
0H
0>
07
0M
1O
0G
0A
1+
0<
15
14
0@
08
1B
b111 -
b111 6
1=
b10111000 1
b0zz011z0 #
b0zz011z0 .
1$
b1111001 Q
b111 (
#2440
b0zz010z0 #
b0zz010z0 .
0$
b1111010 Q
#2460
0N
17
1G
0E
1M
0K
1<
1@
04
0I
05
0+
0O
0*
18
0B
1?
1F
1L
0=
0D
0J
b0 -
b0 6
0P
b10111000 "
b10111000 0
1!
b1110001 1
1$
b1111011 Q
b0zz111z0 #
b0zz111z0 .
b1000 (
#2480
b0zz110z0 #
b0zz110z0 .
0$
b1111100 Q
#2500
07
1>
0<
0@
1C
08
1B
b1 -
b1 6
1=
b11100011 1
b0zz111z0 #
b0zz111z0 .
1$
b1111101 Q
b1001 (
#2520
b0zz110z0 #
b0zz110z0 .
0$
b1111110 Q
#2540
17
1A
1>
1<
1@
0C
0?
18
0B
1D
b10 -
b10 6
0=
b11000110 1
1$
b1111111 Q
b0zz011z0 #
b0zz011z0 .
b1010 (
#2560
b0zz010z0 #
b0zz010z0 .
0$
b10000000 Q
#2580
1E
0>
07
0G
1I
0A
0<
14
0@
08
1B
b11 -
b11 6
1=
b10001101 1
1$
b10000001 Q
b0zz111z0 #
b0zz111z0 .
b1011 (
#2600
b0zz110z0 #
b0zz110z0 .
0$
b10000010 Q
#2620
1H
1E
17
1G
0I
1<
04
1@
0F
1?
18
0B
1J
0D
b100 -
b100 6
0=
b11011 1
b0zz111z0 #
b0zz111z0 .
1$
b10000011 Q
b0 (
#2640
b0zz110z0 #
b0zz110z0 .
0$
b10000100 Q
#2660
07
1>
0<
0@
1C
08
1B
b101 -
b101 6
1=
b110110 1
1$
b10000101 Q
b0zz011z0 #
b0zz011z0 .
b1 (
#2680
b0zz010z0 #
b0zz010z0 .
0$
b10000110 Q
#2700
17
1A
1>
1<
1@
0C
0?
18
0B
1D
b110 -
b110 6
0=
b1101101 1
1$
b10000111 Q
b0zz111z0 #
b0zz111z0 .
b10 (
#2720
b0zz110z0 #
b0zz110z0 .
0$
b10001000 Q
#2740
0E
1K
0H
0>
07
0M
1O
0G
0A
1+
0<
15
14
0@
08
1B
b111 -
b111 6
1=
b11011011 1
b0zz111z0 #
b0zz111z0 .
1$
b10001001 Q
b11 (
#2760
b0zz110z0 #
b0zz110z0 .
0$
b10001010 Q
#2780
0N
0K
17
1M
1G
0O
0*
0+
1<
05
04
1@
1L
1F
1?
18
0B
0P
0J
0D
b0 -
b0 6
0=
b11011011 "
b11011011 0
0!
b10110111 1
b0zz111z0 #
b0zz111z0 .
1$
b10001011 Q
b100 (
#2800
b0zz110z0 #
b0zz110z0 .
0$
b10001100 Q
#2820
07
1>
0<
0@
1C
08
1B
b1 -
b1 6
1=
b1101110 1
1$
b10001101 Q
b0zz011z0 #
b0zz011z0 .
b101 (
#2840
b0zz010z0 #
b0zz010z0 .
0$
b10001110 Q
#2860
17
1A
1>
1<
1@
0C
18
0B
0?
0=
b10 -
b10 6
1D
b11011100 1
b0zz011z0 #
b0zz011z0 .
1$
b10001111 Q
b110 (
#2880
b0zz010z0 #
b0zz010z0 .
0$
b10010000 Q
#2900
1E
0>
07
0G
1I
0A
0<
14
0@
08
1B
b11 -
b11 6
1=
b10111000 1
b0zz011z0 #
b0zz011z0 .
1$
b10010001 Q
b111 (
#2920
b0zz010z0 #
b0zz010z0 .
0$
b10010010 Q
#2940
1H
17
1G
1E
1<
1@
04
0I
0+
18
0B
1?
0F
0=
0D
b100 -
b100 6
1J
b1110001 1
1$
b10010011 Q
b0zz111z0 #
b0zz111z0 .
b1000 (
#2960
b0zz110z0 #
b0zz110z0 .
0$
b10010100 Q
#2980
07
1>
0<
0@
1C
08
1B
b101 -
b101 6
1=
b11100011 1
b0zz111z0 #
b0zz111z0 .
1$
b10010101 Q
b1001 (
#3000
b0zz110z0 #
b0zz110z0 .
0$
b10010110 Q
#3020
17
1A
1>
1<
1@
0C
18
0B
0?
0=
b110 -
b110 6
1D
b11000110 1
1$
b10010111 Q
b0zz011z0 #
b0zz011z0 .
b1010 (
#3040
b0zz010z0 #
b0zz010z0 .
0$
b10011000 Q
#3060
0E
1K
0H
0>
07
0M
1O
0G
0A
1+
0<
15
14
0@
08
1B
b111 -
b111 6
1=
b10001101 1
1$
b10011001 Q
b0zz111z0 #
b0zz111z0 .
b1011 (
#3080
b0zz110z0 #
b0zz110z0 .
0$
b10011010 Q
#3100
0N
17
1G
0E
1M
0K
1<
1@
04
0I
05
0+
0O
0*
18
0B
1?
1F
1L
0=
0D
0J
b0 -
b0 6
0P
b10001101 "
b10001101 0
1!
b11011 1
b0zz111z0 #
b0zz111z0 .
1$
b10011011 Q
b0 (
#3120
b0zz110z0 #
b0zz110z0 .
0$
b10011100 Q
#3140
07
1>
0<
0@
1C
08
1B
b1 -
b1 6
1=
b110110 1
1$
b10011101 Q
b0zz011z0 #
b0zz011z0 .
b1 (
#3160
b0zz010z0 #
b0zz010z0 .
0$
b10011110 Q
#3180
17
1A
1>
1<
1@
0C
0?
18
0B
1D
b10 -
b10 6
0=
b1101101 1
1$
b10011111 Q
b0zz111z0 #
b0zz111z0 .
b10 (
#3200
b0zz110z0 #
b0zz110z0 .
0$
b10100000 Q
#3220
1E
0>
07
0G
1I
0A
0<
14
0@
08
1B
b11 -
b11 6
1=
b11011011 1
b0zz111z0 #
b0zz111z0 .
1$
b10100001 Q
b11 (
#3240
b0zz110z0 #
b0zz110z0 .
0$
b10100010 Q
#3260
1H
1E
17
1G
0I
1<
04
1@
0F
1?
18
0B
1J
0D
b100 -
b100 6
0=
b10110111 1
b0zz111z0 #
b0zz111z0 .
1$
b10100011 Q
b100 (
#3280
b0zz110z0 #
b0zz110z0 .
0$
b10100100 Q
#3300
07
1>
0<
0@
1C
08
1B
b101 -
b101 6
1=
b1101110 1
1$
b10100101 Q
b0zz011z0 #
b0zz011z0 .
b101 (
#3320
b0zz010z0 #
b0zz010z0 .
0$
b10100110 Q
#3340
17
1A
1>
1<
1@
0C
0?
18
0B
1D
b110 -
b110 6
0=
b11011100 1
b0zz011z0 #
b0zz011z0 .
1$
b10100111 Q
b110 (
#3360
b0zz010z0 #
b0zz010z0 .
0$
b10101000 Q
#3380
0E
1K
0H
0>
07
0M
1O
0G
0A
1+
0<
15
14
0@
08
1B
b111 -
b111 6
1=
b10111000 1
b0zz011z0 #
b0zz011z0 .
1$
b10101001 Q
b111 (
#3400
b0zz010z0 #
b0zz010z0 .
0$
b10101010 Q
#3420
0N
0K
17
1M
1G
0O
0*
0+
1<
05
04
1@
1L
1F
1?
18
0B
0P
0J
0D
b0 -
b0 6
0=
b10111000 "
b10111000 0
0!
b1110001 1
1$
b10101011 Q
b0zz111z0 #
b0zz111z0 .
b1000 (
#3440
b0zz110z0 #
b0zz110z0 .
0$
b10101100 Q
#3460
07
1>
0<
0@
1C
08
1B
b1 -
b1 6
1=
b11100011 1
b0zz111z0 #
b0zz111z0 .
1$
b10101101 Q
b1001 (
#3480
b0zz110z0 #
b0zz110z0 .
0$
b10101110 Q
#3500
17
1A
1>
1<
1@
0C
18
0B
0?
0=
b10 -
b10 6
1D
b11000110 1
1$
b10101111 Q
b0zz011z0 #
b0zz011z0 .
b1010 (
#3520
b0zz010z0 #
b0zz010z0 .
0$
b10110000 Q
#3540
1E
0>
07
0G
1I
0A
0<
14
0@
08
1B
b11 -
b11 6
1=
b10001101 1
1$
b10110001 Q
b0zz111z0 #
b0zz111z0 .
b1011 (
#3560
b0zz110z0 #
b0zz110z0 .
0$
b10110010 Q
#3580
1H
17
1G
1E
1<
1@
04
0I
0+
18
0B
1?
0F
0=
0D
b100 -
b100 6
1J
b11011 1
b0zz111z0 #
b0zz111z0 .
1$
b10110011 Q
b0 (
#3600
b0zz110z0 #
b0zz110z0 .
0$
b10110100 Q
#3620
07
1>
0<
0@
1C
08
1B
b101 -
b101 6
1=
b110110 1
1$
b10110101 Q
b0zz011z0 #
b0zz011z0 .
b1 (
#3640
b0zz010z0 #
b0zz010z0 .
0$
b10110110 Q
#3660
17
1A
1>
1<
1@
0C
18
0B
0?
0=
b110 -
b110 6
1D
b1101101 1
1$
b10110111 Q
b0zz111z0 #
b0zz111z0 .
b10 (
#3680
b0zz110z0 #
b0zz110z0 .
0$
b10111000 Q
#3700
0E
1K
0H
0>
07
0M
1O
0G
0A
1+
0<
15
14
0@
08
1B
b111 -
b111 6
1=
b11011011 1
b0zz111z0 #
b0zz111z0 .
1$
b10111001 Q
b11 (
#3720
b0zz110z0 #
b0zz110z0 .
0$
b10111010 Q
#3740
0N
17
1G
0E
1M
0K
1<
1@
04
0I
05
0+
0O
0*
18
0B
1?
1F
1L
0=
0D
0J
b0 -
b0 6
0P
b11011011 "
b11011011 0
1!
b10110111 1
b0zz111z0 #
b0zz111z0 .
1$
b10111011 Q
b100 (
#3760
b0zz110z0 #
b0zz110z0 .
0$
b10111100 Q
#3780
07
1>
0<
0@
1C
08
1B
b1 -
b1 6
1=
b1101110 1
1$
b10111101 Q
b0zz011z0 #
b0zz011z0 .
b101 (
#3800
b0zz010z0 #
b0zz010z0 .
0$
b10111110 Q
#3820
17
1A
1>
1<
1@
0C
0?
18
0B
1D
b10 -
b10 6
0=
b11011100 1
b0zz011z0 #
b0zz011z0 .
1$
b10111111 Q
b110 (
#3840
b0zz010z0 #
b0zz010z0 .
0$
b11000000 Q
#3860
1E
0>
07
0G
1I
0A
0<
14
0@
08
1B
b11 -
b11 6
1=
b10111000 1
b0zz011z0 #
b0zz011z0 .
1$
b11000001 Q
b111 (
